<?xml version="1.0" encoding="UTF-8"?>
<!--

    jumbo-converters - Conversion templates used for format conversions by the jumbo-saxon project.
    Copyright © 2014 ioChem-BD (contact@iochem-bd.org)

    This program is free software: you can redistribute it and/or modify
    it under the terms of the GNU Affero General Public License as published by
    the Free Software Foundation, either version 3 of the License, or
    (at your option) any later version.

    This program is distributed in the hope that it will be useful,
    but WITHOUT ANY WARRANTY; without even the implied warranty of
    MERCHANTABILITY or FITNESS FOR A PARTICULAR PURPOSE.  See the
    GNU Affero General Public License for more details.

    You should have received a copy of the GNU Affero General Public License
    along with this program.  If not, see <http://www.gnu.org/licenses/>.

-->
<template id='gamess-uk.log' output="VERBOSE"
  xmlns:c="http://www.xml-cml.org/dictionary"
  xmlns:compchem="http://www.xml-cml.org/dictionary/compchem/"
  xmlns:guk="http://www.xml-cml.org/dictionary/gamess-uk/"
>
  <templateList id='main' xmlns:xi="http://www.w3.org/2001/XInclude">
    <xi:include href="templates/header.xml"/>
    <xi:include href="templates/coords.xml"/>
    <xi:include href="templates/molsym.xml"/>
    <xi:include href="templates/molbasis.xml"/>
    <xi:include href="templates/failchunker.xml"/>
  </templateList>

</template>